…
I wanted then to plot the mean age of the mothers in the cohort (when
their child is first born). This dataset is filtered for mothers with
children under 6 for any given year.

    mean_maternal_ages <-  NLSY_Valid_Childcare_1 %>% dplyr::select(PUBID_1997,YEAR,WORK_EDU_HRS,FAMILY_CARE,MATERNAL_AGE) %>% subset(YEAR>2005) %>%
      dplyr::mutate(FAMILY_CARE_CAT = ifelse(`WORK_EDU_HRS`==0, 'No (Mother Provides Childcare)',ifelse(`FAMILY_CARE`==1,'Yes',ifelse(FAMILY_CARE==0,'No (Other Childcare)',NaN)))) %>%
      dplyr::group_by(YEAR,FAMILY_CARE_CAT) %>% mutate(Mean_Maternal_Age = mean(MATERNAL_AGE)) %>% ungroup() %>%
      dplyr::group_by(YEAR) %>% mutate(Overall_Mean_Maternal_Age = mean(MATERNAL_AGE)) %>% ungroup() %>% 
      group_by(YEAR,Mean_Maternal_Age,Overall_Mean_Maternal_Age,FAMILY_CARE_CAT) %>% dplyr::summarize() 

    ## `summarise()` has grouped output by 'YEAR', 'Mean_Maternal_Age', 'Overall_Mean_Maternal_Age'. You can override using the `.groups` argument.

    mean_maternal_ages

    ## # A tibble: 27 × 4
    ## # Groups:   YEAR, Mean_Maternal_Age, Overall_Mean_Maternal_Age [27]
    ##     YEAR Mean_Maternal_Age Overall_Mean_Maternal_Age FAMILY_CARE_CAT            
    ##    <dbl>             <dbl>                     <dbl> <chr>                      
    ##  1  2006              21.9                      22.2 No (Other Childcare)       
    ##  2  2006              22.2                      22.2 Yes                        
    ##  3  2006              22.6                      22.2 No (Mother Provides Childc…
    ##  4  2007              22.4                      22.8 No (Other Childcare)       
    ##  5  2007              22.9                      22.8 No (Mother Provides Childc…
    ##  6  2007              23.0                      22.8 Yes                        
    ##  7  2008              23.0                      23.6 No (Other Childcare)       
    ##  8  2008              23.7                      23.6 Yes                        
    ##  9  2008              24.0                      23.6 No (Mother Provides Childc…
    ## 10  2009              24.2                      24.7 No (Other Childcare)       
    ## # … with 17 more rows
…
