…
### Fixed Effects

``` r
fe.part_time_full <- plm(INCOME_LOG ~ FAMILY_CARE + MARRIED_OR_COHABITATING + BA_ABOVE + SPOUSAL_INCOME_LOG + as.factor(YEAR),
               index = c("PUBID_1997", "YEAR"), # id & time variables
               model = "within", 
               data = NLSY_Valid_Childcare_Part_Time_One_Child)

NLSY_Valid_Childcare_Part_Time_One_Child %>% select(FAMILY_CARE,RELATIVE_CARE,INCOME_LOG)
```

    # A tibble: 2,520 × 3
       FAMILY_CARE RELATIVE_CARE INCOME_LOG
             <dbl>         <dbl>      <dbl>
     1           1             1       8.19
     2           0             0      10.2 
     3           1             1       8.70
     4           1             1      10.1 
     5           0             0      10.1 
     6           1             1      10.1 
     7           0             0       9.90
     8           1             1      10.1 
     9           1             1       9.85
    10           0             0       9.90
    # … with 2,510 more rows
…
